[
    {
        "bank_display_name": "AGRICULTURAL DEVELOPMENT BANK LTD.",
        "swift_code": "ADBLNPKA",
        "min_amount": 100.0,
        "max_amount": 50000.0,
        "regex": "^[0-9|a-zA-Z]+$"
    },
    {
        "bank_display_name": "BANK OF KATHMANDU LTD.",
        "swift_code": "BOKLNPKA",
        "min_amount": 100.0,
        "max_amount": 50000.0,
        "regex": "^[0-9|a-zA-Z]+$"
    },
    {
        "bank_display_name": "BEST FINANCE COMPANY LTD.",
        "swift_code": "BFCLNPKA",
        "min_amount": 100.0,
        "max_amount": 50000.0,
        "regex": "^[0-9|a-zA-Z]+$"
    },
    {
        "bank_display_name": "CENTURY COMMERCIAL BANK LTD.",
        "swift_code": "CCBNNPKA",
        "min_amount": 100.0,
        "max_amount": 50000.0,
        "regex": "^[0-9|a-zA-Z]+$"
    },
    {
        "bank_display_name": "CITIZENS BANK INTL. LTD",
        "swift_code": "CTZNNPKA",
        "min_amount": 100.0,
        "max_amount": 50000.0,
        "regex": "^[0-9|a-zA-Z]+$"
    },
    {
        "bank_display_name": "CIVIL BANK LTD.",
        "swift_code": "CIVLNPKA",
        "min_amount": 100.0,
        "max_amount": 50000.0,
        "regex": "^[0-9|a-zA-Z]+$"
    },
    {
        "bank_display_name": "EVEREST BANK LTD.",
        "swift_code": "EVBLNPKA",
        "min_amount": 100.0,
        "max_amount": 50000.0,
        "regex": "^([0-9]{14})$"
    },
    {
        "bank_display_name": "GARIMA DEVELOPMENT BANK LTD.",
        "swift_code": "GRDBLNPKA",
        "min_amount": 100.0,
        "max_amount": 50000.0,
        "regex": "^[0-9|a-zA-Z]+$"
    },
    {
        "bank_display_name": "GLOBAL IME BANK LTD.",
        "swift_code": "GLBBNPKA",
        "min_amount": 100.0,
        "max_amount": 50000.0,
        "regex": "^(?=.*\\d)[A-Z0-9]{13}$"
    },
    {
        "bank_display_name": "GREEN DEVELOPMENT BANK LTD.",
        "swift_code": "GRENNPKA",
        "min_amount": 100.0,
        "max_amount": 100000.0,
        "regex": "^[0-9|a-zA-Z]+$"
    },
    {
        "bank_display_name": "GURKHAS FINANCE LTD.",
        "swift_code": "KMFNPKA",
        "min_amount": 100.0,
        "max_amount": 50000.0,
        "regex": "^[0-9|a-zA-Z]+$"
    },
    {
        "bank_display_name": "ICFC FINANCE LTD.",
        "swift_code": "ICFCNPKA",
        "min_amount": 100.0,
        "max_amount": 50000.0,
        "regex": "^[0-9|a-zA-Z]+$"
    },
    {
        "bank_display_name": "JYOTI BIKAS BANK LTD.",
        "swift_code": "JBBLNPKA",
        "min_amount": 100.0,
        "max_amount": 50000.0,
        "regex": "^[0-9|a-zA-Z]+$"
    },
    {
        "bank_display_name": "KAMANA SEWA BIKAS BANK LTD.",
        "swift_code": "KSKFNPKA",
        "min_amount": 100.0,
        "max_amount": 50000.0,
        "regex": "^[0-9|a-zA-Z]+$"
    },
    {
        "bank_display_name": "KARNALI DEVELOPMENT BANK LTD.",
        "swift_code": "KRDBLNPKA",
        "min_amount": 100.0,
        "max_amount": 50000.0,
        "regex": "^[0-9|a-zA-Z]+$"
    },
    {
        "bank_display_name": "KUMARI BANK LTD.",
        "swift_code": "KMBLNPKA",
        "min_amount": 100.0,
        "max_amount": 50000.0,
        "regex": "^[0-9|a-zA-Z]+$"
    },
    {
        "bank_display_name": "LAXMI BANK LTD.",
        "swift_code": "LXBLNPKA",
        "min_amount": 100.0,
        "max_amount": 50000.0,
        "regex": "^[0-9|a-zA-Z]+$"
    },
    {
        "bank_display_name": "LUMBINI BIKAS BANK LTD.",
        "swift_code": "HNBNPKA",
        "min_amount": 100.0,
        "max_amount": 50000.0,
        "regex": "^[0-9|a-zA-Z]+$"
    },
    {
        "bank_display_name": "MACHHAPUCHCHHRE BANK LTD.",
        "swift_code": "MBLNNPKA",
        "min_amount": 100.0,
        "max_amount": 50000.0,
        "regex": "^[0-9|a-zA-Z]+$"
    },
    {
        "bank_display_name": "MAHALAXMI BIKAS BANK LTD.",
        "swift_code": "MBBLNPKA",
        "min_amount": 100.0,
        "max_amount": 50000.0,
        "regex": "^[0-9|a-zA-Z]+$"
    },
    {
        "bank_display_name": "MANJUSHREE FINANCE LTD.",
        "swift_code": "MFILNPKA",
        "min_amount": 100.0,
        "max_amount": 50000.0,
        "regex": "^[0-9|a-zA-Z]+$"
    },
    {
        "bank_display_name": "MEGA BANK LTD.",
        "swift_code": "MBNLNPKA",
        "min_amount": 100.0,
        "max_amount": 50000.0,
        "regex": "^[0-9|a-zA-Z]+$"
    },
    {
        "bank_display_name": "MUKTINATH BIKAS BANK LTD.",
        "swift_code": "MNBBLNPKA",
        "min_amount": 100.0,
        "max_amount": 50000.0,
        "regex": "^[0-9|a-zA-Z]+$"
    },
    {
        "bank_display_name": "NABIL BANK LTD.",
        "swift_code": "NARBNPKA",
        "min_amount": 100.0,
        "max_amount": 60000.0,
        "regex": "^[0-9|a-zA-Z]+$"
    },
    {
        "bank_display_name": "NEPAL BANGLADESH BANK LTD.",
        "swift_code": "NPBBNPKA",
        "min_amount": 100.0,
        "max_amount": 50000.0,
        "regex": "^(?=.*\\d)(?=.*[a-zA-Z]).{10}$"
    },
    {
        "bank_display_name": "NEPAL BANK LTD.",
        "swift_code": "NEBLNPKA",
        "min_amount": 100.0,
        "max_amount": 50000.0,
        "regex": "^[0-9|a-zA-Z]+$"
    },
    {
        "bank_display_name": "NEPAL CREDIT & COMMERCE BANK LTD.",
        "swift_code": "NBOCNPKA",
        "min_amount": 100.0,
        "max_amount": 50000.0,
        "regex": "^[0-9|a-zA-Z]+$"
    },
    {
        "bank_display_name": "NEPAL INVESTMENT BANK LTD.",
        "swift_code": "NIBLNPKA",
        "min_amount": 100.0,
        "max_amount": 50000.0,
        "regex": "^[0-9|a-zA-Z]+$"
    },
    {
        "bank_display_name": "NEPAL SBI  BANK LTD.",
        "swift_code": "NSBINPKA",
        "min_amount": 100.0,
        "max_amount": 50000.0,
        "regex": "^[0-9|a-zA-Z]+$"
    },
    {
        "bank_display_name": "NIC ASIA BANK LTD.",
        "swift_code": "BOALNPKA",
        "min_amount": 100.0,
        "max_amount": 50000.0,
        "regex": "^[0-9|a-zA-Z]+$"
    },
    {
        "bank_display_name": "NMB BANK LTD.",
        "swift_code": "NMBBNPKA",
        "min_amount": 100.0,
        "max_amount": 50000.0,
        "regex": "^[0-9|a-zA-Z]+$"
    },
    {
        "bank_display_name": "POKHARA FINANCE LTD.",
        "swift_code": "PFLNPKA",
        "min_amount": 100.0,
        "max_amount": 50000.0,
        "regex": "^[0-9|a-zA-Z]+$"
    },
    {
        "bank_display_name": "PRABHU BANK LTD.",
        "swift_code": "KISTNPKA",
        "min_amount": 100.0,
        "max_amount": 50000.0,
        "regex": "^[0-9|a-zA-Z]+$"
    },
    {
        "bank_display_name": "PRIME COMMERCIAL BANK LTD.",
        "swift_code": "PCBLNPKA",
        "min_amount": 100.0,
        "max_amount": 50000.0,
        "regex": "^[0-9|a-zA-Z]+$"
    },
    {
        "bank_display_name": "PROGRESSIVE FINANCE LTD.",
        "swift_code": "PFLTDNPKA",
        "min_amount": 1.0,
        "max_amount": 50000.0,
        "regex": "^[0-9|a-zA-Z]+$"
    },
    {
        "bank_display_name": "RASTRIYA BANIJYA BANK LTD.",
        "swift_code": "RBBANPKA",
        "min_amount": 100.0,
        "max_amount": 50000.0,
        "regex": "^[0-9|a-zA-Z]+$"
    },
    {
        "bank_display_name": "RELIANCE FINANCE LTD.",
        "swift_code": "RFLNPKA",
        "min_amount": 100.0,
        "max_amount": 100000.0,
        "regex": "^[0-9|a-zA-Z]+$"
    },
    {
        "bank_display_name": "SANIMA BANK LTD.",
        "swift_code": "SNMANPKA",
        "min_amount": 100.0,
        "max_amount": 50000.0,
        "regex": "^[0-9|a-zA-Z]+$"
    },
    {
        "bank_display_name": "SAPTAKOSHI DEVELOPMENT BANK LTD.",
        "swift_code": "SKDBLNPKA",
        "min_amount": 100.0,
        "max_amount": 50000.0,
        "regex": "^[0-9|a-zA-Z]+$"
    },
    {
        "bank_display_name": "SHANGRI-LA DEVELOPMENT BANK LTD.",
        "swift_code": "SGBBNPKA",
        "min_amount": 100.0,
        "max_amount": 50000.0,
        "regex": "^[0-9|a-zA-Z]+$"
    },
    {
        "bank_display_name": "SHINE RESUNGA DEVELOPMENT BANK LTD.",
        "swift_code": "SRDBNPKA",
        "min_amount": 100.0,
        "max_amount": 50000.0,
        "regex": "^[0-9|a-zA-Z]+$"
    },
    {
        "bank_display_name": "SINDHU BIKAS BANK LTD.",
        "swift_code": "SINDNPKA",
        "min_amount": 100.0,
        "max_amount": 50000.0,
        "regex": "^(?=.*\\d)(?=.*[a-zA-Z]).{10}$"
    },
    {
        "bank_display_name": "SRIJANA FINANCE LTD.",
        "swift_code": "SFLNPKA",
        "min_amount": 100.0,
        "max_amount": 50000.0,
        "regex": "^[0-9|a-zA-Z]+$"
    },
    {
        "bank_display_name": "SUNRISE BANK LTD.",
        "swift_code": "SRBLNPKA",
        "min_amount": 100.0,
        "max_amount": 50000.0,
        "regex": "^[0-9|a-zA-Z]+$"
    },
    {
        "bank_display_name": "TINAUMISSION DEVELOPMENT BANK LTD.",
        "swift_code": "TBBNPKA",
        "min_amount": 100.0,
        "max_amount": 50000.0,
        "regex": "^[0-9|a-zA-Z]+$"
    },
    {
        "bank_display_name": "UNITED FINANCE LTD.",
        "swift_code": "UFLNPKA",
        "min_amount": 100.0,
        "max_amount": 50000.0,
        "regex": "^[0-9|a-zA-Z]+$"
    }
]